{
  "satie_configuration": {
    "server": {
      "name": "myServer",
      "supernova": false
    },
    "minOutputBusChannels": 2,
    "numAudioAux": 2,
    "ambiOrders": [ 1, 3 ],
    "listeningFormat": [ "stereoListener", "domeVBAP" ],
    "outBusIndex": [ 0, 2 ]
  }
}
